out1.vcd
$date
  Wed Mar 04 23:57:05 2020
$end
$version
  GHDL v0
$end
$timescale
  1 fs
$end
$var reg 1 ! clk $end
$var reg 1 " clear_t $end
$var reg 1 # load_t $end
$var reg 1 $ bit_out_t $end
$var reg 9 % dati_t[8:0] $end
$var reg 9 & y_t[8:0] $end
$scope module uut $end
$var reg 1 ' clock $end
$var reg 1 ( clear $end
$var reg 1 ) load $end
$var reg 9 * dati[8:0] $end
$var reg 9 + y[8:0] $end
$var reg 1 , bit_out $end
$var reg 9 - y_int[8:0] $end
$upscope $end
$enddefinitions $end
#0
0!
0"
0#
U$
bUUUUUUUUU %
b000000000 &
0'
0(
0)
bUUUUUUUUU *
b000000000 +
U,
b000000000 -
#2000000
1!
1"
1'
1(
#4000000
0!
0"
0'
0(
#6000000
1!
1#
bUUUUUUUUU &
1'
1)
bUUUUUUUUU +
bUUUUUUUUU -
#8000000
0!
0'
#10000000
1!
1'
#12000000
0!
0'
#13000000
b000000100 %
b000000100 *
#14000000
1!
b000000100 &
1'
b000000100 +
b000000100 -
#15000000
0#
0)
#16000000
0!
0'
#18000000
1!
b000001000 &
1'
b000001000 +
b000001000 -
#20000000
0!
0'
#22000000
1!
b000010000 &
1'
b000010000 +
b000010000 -
#24000000
0!
0'
#26000000
1!
b000100000 &
1'
b000100000 +
b000100000 -
#28000000
0!
0'
#30000000
1!
b001000000 &
1'
b001000000 +
b001000000 -
#32000000
0!
0'
#34000000
1!
b010000000 &
1'
b010000000 +
b010000000 -
#36000000
0!
0'
#38000000
1!
b100000000 &
1'
b100000000 +
b100000000 -
#40000000
0!
0'
#42000000
1!
b000000000 &
1'
b000000000 +
b000000000 -
