out3.vcd
$date
  Wed Mar 04 23:57:09 2020
$end
$version
  GHDL v0
$end
$timescale
  1 fs
$end
$var reg 1 ! clk $end
$var reg 1 " clear_t $end
$var reg 1 # abilita_t $end
$var reg 2 $ count[1:0] $end
$scope module uut $end
$var reg 1 % clock $end
$var reg 1 & clear_n $end
$var reg 1 ' abilita $end
$var reg 2 ( conteggio[1:0] $end
$var reg 1 ) clock0 $end
$var reg 1 * clock1 $end
$var reg 1 + clock2 $end
$var reg 1 , clock3 $end
$var reg 1 - clock_r $end
$var reg 1 . and1 $end
$var reg 1 / and2 $end
$var reg 1 0 and3 $end
$scope module c0 $end
$var reg 1 1 clock $end
$var reg 1 2 clear $end
$var reg 1 3 y $end
$var reg 1 4 valore $end
$upscope $end
$scope module c1 $end
$var reg 1 5 clock $end
$var reg 1 6 clear $end
$var reg 1 7 y $end
$var reg 1 8 valore $end
$upscope $end
$upscope $end
$enddefinitions $end
#0
1!
0"
0#
b00 $
1%
0&
0'
b00 (
0)
0*
U+
U,
0-
0.
0/
00
01
02
03
04
05
06
07
08
#2000000
0!
0%
#4000000
1!
1%
#6000000
0!
0%
#7000000
1"
1&
12
16
#8000000
1!
1%
#10000000
0!
1#
0%
1'
#12000000
1!
1%
1-
11
#14000000
0!
b01 $
0%
b01 (
1)
0-
01
13
14
#16000000
1!
1%
1-
1.
11
15
#18000000
0!
b10 $
0%
b10 (
0)
1*
0-
0.
01
03
04
05
17
18
#20000000
1!
1%
1-
11
#22000000
0!
b11 $
0%
b11 (
1)
0-
01
13
14
#24000000
1!
1%
1-
1.
1/
U0
11
15
#26000000
0!
b00 $
0%
b00 (
0)
0*
0-
0.
0/
00
01
03
04
05
07
08
#28000000
1!
1%
1-
11
#30000000
0!
b01 $
0%
b01 (
1)
0-
01
13
14
#32000000
1!
1%
1-
1.
11
15
#34000000
0!
b10 $
0%
b10 (
0)
1*
0-
0.
01
03
04
05
17
18
#36000000
1!
1%
1-
11
#38000000
0!
b11 $
0%
b11 (
1)
0-
01
13
14
#40000000
1!
0#
1%
0'
