out4.vcd
$date
  Sat Mar 07 13:15:26 2020
$end
$version
  GHDL v0
$end
$timescale
  1 fs
$end
$var reg 4 ! dividendo_t[3:0] $end
$var reg 4 " divisore_t[3:0] $end
$var reg 1 # clk $end
$var reg 1 $ abilita_t $end
$var reg 1 % clear_t $end
$var reg 1 & errore_t $end
$var reg 4 ' quoziente_t[3:0] $end
$var reg 4 ( resto_t[3:0] $end
$scope module uut $end
$var reg 4 ) dividendo[3:0] $end
$var reg 4 * divisore[3:0] $end
$var reg 1 + clock $end
$var reg 1 , abilita $end
$var reg 1 - clear $end
$var reg 4 . quoziente[3:0] $end
$var reg 4 / resto[3:0] $end
$var reg 1 0 errore $end
$var reg 5 1 risultato[4:0] $end
$var reg 5 2 m_1[4:0] $end
$var reg 5 3 a[4:0] $end
$var reg 4 4 q[3:0] $end
$var reg 9 5 carica_saq[8:0] $end
$var reg 9 6 saq[8:0] $end
$var reg 4 7 m[3:0] $end
$var reg 1 8 abilita_saq $end
$var reg 1 9 abilita_m $end
$var reg 1 : load $end
$var reg 1 ; sub $end
$var reg 1 < s $end
$var reg 1 = sel_saq $end
$var reg 1 > set_q $end
$var reg 1 ? clock_m $end
$var reg 1 @ clock_and_load $end
$var reg 1 A clock_saq $end
$scope module cu $end
$var reg 1 B clock $end
$var reg 1 C clear $end
$var reg 1 D abilita $end
$var reg 1 E s $end
$var reg 1 F abilita_saq $end
$var reg 1 G abilita_m $end
$var reg 1 H load $end
$var reg 1 I sub $end
$var reg 1 J set_q $end
$var reg 1 K sel_saq $end
$comment stato_corrente is not handled $end
$comment stato_prossimo is not handled $end
$var reg 2 L val_count[1:0] $end
$var reg 1 M abilita_cont $end
$var reg 1 N cnt_0 $end
$var reg 1 O cnt_or_sign $end
$var reg 1 P clear_n $end
$scope module c4 $end
$var reg 1 Q clock $end
$var reg 1 R clear_n $end
$var reg 1 S abilita $end
$var reg 2 T conteggio[1:0] $end
$var reg 1 U clock0 $end
$var reg 1 V clock1 $end
$var reg 1 W clock2 $end
$var reg 1 X clock3 $end
$var reg 1 Y clock_r $end
$var reg 1 Z and1 $end
$var reg 1 [ and2 $end
$var reg 1 \ and3 $end
$scope module c0 $end
$var reg 1 ] clock $end
$var reg 1 ^ clear $end
$var reg 1 _ y $end
$var reg 1 ` valore $end
$upscope $end
$scope module c1 $end
$var reg 1 a clock $end
$var reg 1 b clear $end
$var reg 1 c y $end
$var reg 1 d valore $end
$upscope $end
$upscope $end
$upscope $end
$scope module add $end
$var reg 5 e a[4:0] $end
$var reg 5 f b[4:0] $end
$var reg 1 g sub $end
$var reg 5 h y[4:0] $end
$var reg 1 i c_out $end
$var reg 6 j c[5:0] $end
$var reg 5 k b_comp[4:0] $end
$scope module fa1 $end
$var reg 1 l a $end
$var reg 1 m b $end
$var reg 1 n c_in $end
$var reg 1 o s $end
$var reg 1 p c_out $end
$var reg 1 q out_s $end
$var reg 1 r out_c $end
$var reg 1 s temp $end
$scope module ha1 $end
$var reg 1 t a $end
$var reg 1 u b $end
$var reg 1 v s $end
$var reg 1 w c_out $end
$upscope $end
$scope module ha2 $end
$var reg 1 x a $end
$var reg 1 y b $end
$var reg 1 z s $end
$var reg 1 { c_out $end
$upscope $end
$upscope $end
$scope module fa2 $end
$var reg 1 | a $end
$var reg 1 } b $end
$var reg 1 !" c_in $end
$var reg 1 "" s $end
$var reg 1 #" c_out $end
$var reg 1 $" out_s $end
$var reg 1 %" out_c $end
$var reg 1 &" temp $end
$scope module ha1 $end
$var reg 1 '" a $end
$var reg 1 (" b $end
$var reg 1 )" s $end
$var reg 1 *" c_out $end
$upscope $end
$scope module ha2 $end
$var reg 1 +" a $end
$var reg 1 ," b $end
$var reg 1 -" s $end
$var reg 1 ." c_out $end
$upscope $end
$upscope $end
$scope module fa3 $end
$var reg 1 /" a $end
$var reg 1 0" b $end
$var reg 1 1" c_in $end
$var reg 1 2" s $end
$var reg 1 3" c_out $end
$var reg 1 4" out_s $end
$var reg 1 5" out_c $end
$var reg 1 6" temp $end
$scope module ha1 $end
$var reg 1 7" a $end
$var reg 1 8" b $end
$var reg 1 9" s $end
$var reg 1 :" c_out $end
$upscope $end
$scope module ha2 $end
$var reg 1 ;" a $end
$var reg 1 <" b $end
$var reg 1 =" s $end
$var reg 1 >" c_out $end
$upscope $end
$upscope $end
$scope module fa4 $end
$var reg 1 ?" a $end
$var reg 1 @" b $end
$var reg 1 A" c_in $end
$var reg 1 B" s $end
$var reg 1 C" c_out $end
$var reg 1 D" out_s $end
$var reg 1 E" out_c $end
$var reg 1 F" temp $end
$scope module ha1 $end
$var reg 1 G" a $end
$var reg 1 H" b $end
$var reg 1 I" s $end
$var reg 1 J" c_out $end
$upscope $end
$scope module ha2 $end
$var reg 1 K" a $end
$var reg 1 L" b $end
$var reg 1 M" s $end
$var reg 1 N" c_out $end
$upscope $end
$upscope $end
$scope module fa5 $end
$var reg 1 O" a $end
$var reg 1 P" b $end
$var reg 1 Q" c_in $end
$var reg 1 R" s $end
$var reg 1 S" c_out $end
$var reg 1 T" out_s $end
$var reg 1 U" out_c $end
$var reg 1 V" temp $end
$scope module ha1 $end
$var reg 1 W" a $end
$var reg 1 X" b $end
$var reg 1 Y" s $end
$var reg 1 Z" c_out $end
$upscope $end
$scope module ha2 $end
$var reg 1 [" a $end
$var reg 1 \" b $end
$var reg 1 ]" s $end
$var reg 1 ^" c_out $end
$upscope $end
$upscope $end
$upscope $end
$scope module reg1 $end
$var reg 1 _" clock $end
$var reg 1 `" clear $end
$var reg 4 a" dati[3:0] $end
$var reg 4 b" y[3:0] $end
$upscope $end
$scope module ff $end
$var reg 1 c" d $end
$var reg 1 d" abilitazione $end
$var reg 1 e" clear $end
$var reg 1 f" y $end
$upscope $end
$scope module reg2 $end
$var reg 1 g" clock $end
$var reg 1 h" clear $end
$var reg 1 i" load $end
$var reg 9 j" dati[8:0] $end
$var reg 9 k" y[8:0] $end
$var reg 1 l" bit_out $end
$var reg 9 m" y_int[8:0] $end
$upscope $end
$upscope $end
$enddefinitions $end
#0
bUUUU !
bUUUU "
1#
U$
U%
0&
b0000 '
b0000 (
bUUUU )
bUUUU *
1+
U,
U-
b0000 .
b0000 /
00
b0UUUU 1
b0UUUU 2
b00000 3
b0000 4
b00000UUUU 5
b000000000 6
bUUUU 7
08
09
0:
0;
U<
0=
0>
0?
0@
0A
1B
UC
UD
UE
0F
0G
0H
0I
0J
0K
bUU L
0M
1N
0O
UP
1Q
UR
0S
bUU T
UU
UV
UW
UX
0Y
0Z
0[
0\
0]
U^
U_
U`
0a
Ub
Uc
Ud
b00000 e
b0UUUU f
0g
b0UUUU h
0i
b000000 j
b0UUUU k
0l
Um
0n
Uo
0p
Uq
0r
0s
0t
Uu
Uv
0w
Ux
0y
Uz
0{
0|
U}
0!"
U""
0#"
U$"
0%"
0&"
0'"
U("
U)"
0*"
U+"
0,"
U-"
0."
0/"
U0"
01"
U2"
03"
U4"
05"
06"
07"
U8"
U9"
0:"
U;"
0<"
U="
0>"
0?"
U@"
0A"
UB"
0C"
UD"
0E"
0F"
0G"
UH"
UI"
0J"
UK"
0L"
UM"
0N"
0O"
0P"
0Q"
0R"
0S"
0T"
0U"
0V"
0W"
0X"
0Y"
0Z"
0["
0\"
0]"
0^"
0_"
U`"
bUUUU a"
bUUUU b"
0c"
0d"
Ue"
Uf"
0g"
Uh"
0i"
b00000UUUU j"
b000000000 k"
Ul"
b000000000 m"
#2000000
0#
1%
0+
1-
0B
1C
b00 L
0P
0Q
0R
b00 T
0U
0V
0^
0_
0`
0b
0c
0d
1`"
1e"
1h"
#4000000
b0111 !
b0011 "
1#
0%
b0111 )
b0011 *
1+
0-
b000000111 5
1B
0C
1P
1Q
1R
1^
1b
0`"
b0011 a"
0e"
0h"
b000000111 j"
#6000000
0#
0+
0B
0Q
#8000000
1#
1$
1+
1,
1B
1D
1Q
#10000000
0#
0+
18
19
1:
0B
1F
1G
1H
0Q
1i"
#12000000
1#
b0111 '
1+
b0111 .
b00011 1
b00011 2
b0111 4
b000000111 6
b0011 7
1?
1@
1A
1B
1Q
b00011 f
b00011 h
b00011 k
1m
1o
1q
1u
1v
1x
1z
1}
1""
1$"
1("
1)"
1+"
1-"
00"
02"
04"
08"
09"
0;"
0="
0@"
0B"
0D"
0H"
0I"
0K"
0M"
1_"
b0011 b"
1d"
1g"
b000000111 k"
b000000111 m"
#12500000
0<
0E
0f"
#14000000
0#
0+
09
0:
0?
0@
0A
0B
0G
0H
0Q
0_"
0d"
0g"
0i"
#16000000
1#
b1110 '
1+
b1110 .
b1110 4
b000001110 6
1A
1B
1Q
1g"
b000001110 k"
b000001110 m"
#18000000
0#
0+
b11101 1
b111011110 5
1:
1;
1=
1>
0A
0B
1H
1I
1J
1K
1M
0Q
1S
1g
b11101 h
b000001 j
b11100 k
0m
1n
1o
0p
0q
0s
0u
0v
0x
1y
1z
0{
0}
0!"
0""
0$"
0("
0)"
0+"
0,"
0-"
10"
12"
14"
18"
19"
1;"
1="
1@"
1B"
1D"
1H"
1I"
1K"
1M"
1P"
1R"
1T"
1X"
1Y"
1["
1]"
1c"
0g"
1i"
b111011110 j"
#20000000
1#
b1101 (
1+
b1101 /
b11010 1
b11101 3
b110101110 5
b111011110 6
1@
1A
1B
1Q
1Y
1]
b11101 e
b11010 h
1i
b111011 j
1l
0o
1p
1q
1s
1t
1v
1x
0z
1{
1!"
1""
1,"
1-"
1/"
02"
13"
04"
15"
17"
09"
1:"
0;"
0="
1?"
1A"
1B"
1C"
0D"
1E"
1G"
0I"
1J"
0K"
1L"
1M"
1O"
1Q"
1R"
1S"
0T"
1U"
1W"
0Y"
1Z"
0["
1\"
1]"
1c"
1d"
1g"
b110101110 j"
b111011110 k"
b111011110 m"
#20500000
1<
1E
1O
1f"
#22000000
0#
0+
b00000 1
b000001110 5
0;
0>
0@
0A
0B
0I
0J
b01 L
0M
0N
0Q
0S
b01 T
1U
0Y
0]
1_
1`
0g
b00000 h
1i
b111110 j
b00011 k
1m
0n
0o
1p
0q
1r
0s
1u
0v
1w
0x
0y
0z
0{
1}
1!"
0""
1#"
1$"
1&"
1("
1)"
1+"
1,"
0-"
1."
00"
11"
02"
13"
14"
05"
16"
08"
19"
0:"
1;"
1<"
0="
1>"
0@"
1A"
0B"
1C"
1D"
0E"
1F"
0H"
1I"
0J"
1K"
1L"
0M"
1N"
0P"
1Q"
0R"
1S"
1T"
0U"
1V"
0X"
1Y"
0Z"
1["
1\"
0]"
1^"
0c"
0d"
0g"
b000001110 j"
#24000000
1#
b0000 (
1+
b0000 /
b00011 1
b00000 3
b000111110 5
b000001110 6
1@
1A
1B
1Q
b00000 e
b00011 h
0i
b000000 j
0l
1o
0p
1q
0r
0t
1v
0w
1x
1z
0!"
1""
0#"
0&"
0,"
1-"
0."
0/"
01"
02"
03"
04"
06"
07"
09"
0;"
0<"
0="
0>"
0?"
0A"
0B"
0C"
0D"
0F"
0G"
0I"
0K"
0L"
0M"
0N"
0O"
0Q"
0R"
0S"
0T"
0V"
0W"
0Y"
0["
0\"
0]"
0^"
0c"
1d"
1g"
b000111110 j"
b000001110 k"
b000001110 m"
#24500000
0<
0E
0f"
#26000000
0#
0+
b000000111 5
08
0:
0=
0@
0A
0B
0F
0H
0K
0Q
0d"
0g"
0i"
b000000111 j"
#28000000
1#
1+
1B
1Q
#30000000
0#
0+
18
19
1:
0B
1F
1G
1H
0Q
1i"
#32000000
1#
0$
b0111 '
1+
0,
b0111 .
b0111 4
b000000111 6
1?
1@
1A
1B
0D
1Q
1_"
1d"
1g"
b000000111 k"
b000000111 m"
#32500000
0f"
#34000000
0#
0+
09
0:
0?
0@
0A
0B
0G
0H
0Q
0_"
0d"
0g"
0i"
#36000000
1#
b1110 '
1+
b1110 .
b1110 4
b000001110 6
1A
1B
1Q
1g"
b000001110 k"
b000001110 m"
#38000000
0#
0+
b11101 1
b111011110 5
1:
1;
1=
1>
0A
0B
1H
1I
1J
1K
1M
0Q
1S
1g
b11101 h
b000001 j
b11100 k
0m
1n
1o
0p
0q
0s
0u
0v
0x
1y
1z
0{
0}
0!"
0""
0$"
0("
0)"
0+"
0,"
0-"
10"
12"
14"
18"
19"
1;"
1="
1@"
1B"
1D"
1H"
1I"
1K"
1M"
1P"
1R"
1T"
1X"
1Y"
1["
1]"
1c"
0g"
1i"
b111011110 j"
#40000000
1#
b1101 (
1+
b1101 /
b11010 1
b11101 3
b110101110 5
b111011110 6
1@
1A
1B
1Q
1Y
1Z
1]
1a
b11101 e
b11010 h
1i
b111011 j
1l
0o
1p
1q
1s
1t
1v
1x
0z
1{
1!"
1""
1,"
1-"
1/"
02"
13"
04"
15"
17"
09"
1:"
0;"
0="
1?"
1A"
1B"
1C"
0D"
1E"
1G"
0I"
1J"
0K"
1L"
1M"
1O"
1Q"
1R"
1S"
0T"
1U"
1W"
0Y"
1Z"
0["
1\"
1]"
1c"
1d"
1g"
b110101110 j"
b111011110 k"
b111011110 m"
#40500000
1<
1E
1f"
#42000000
0#
0+
b00000 1
b000000111 5
0:
0;
0=
0>
0@
0A
0B
0H
0I
0J
0K
b10 L
0M
0N
0Q
0S
b10 T
0U
1V
0Y
0Z
0]
0_
0`
0a
1c
1d
0g
b00000 h
1i
b111110 j
b00011 k
1m
0n
0o
1p
0q
1r
0s
1u
0v
1w
0x
0y
0z
0{
1}
1!"
0""
1#"
1$"
1&"
1("
1)"
1+"
1,"
0-"
1."
00"
11"
02"
13"
14"
05"
16"
08"
19"
0:"
1;"
1<"
0="
1>"
0@"
1A"
0B"
1C"
1D"
0E"
1F"
0H"
1I"
0J"
1K"
1L"
0M"
1N"
0P"
1Q"
0R"
1S"
1T"
0U"
1V"
0X"
1Y"
0Z"
1["
1\"
0]"
1^"
0c"
0d"
0g"
0i"
b000000111 j"
#44000000
1#
b1100 '
b1011 (
1+
b1100 .
b1011 /
b11110 1
b11011 3
b1100 4
b110111100 6
1A
1B
1Q
b11011 e
b11110 h
0i
b000110 j
1|
1""
0$"
1%"
0&"
1'"
0)"
1*"
0+"
1-"
0."
0/"
12"
03"
04"
06"
07"
09"
0;"
1="
0>"
0A"
1B"
0C"
0F"
0L"
1M"
0N"
0Q"
1R"
0S"
0V"
0\"
1]"
0^"
1c"
1g"
b110111100 k"
b110111100 m"
#46000000
0#
0+
b111101100 5
1:
1=
1>
0A
0B
1H
1J
1K
1M
0Q
1S
0g"
1i"
b111101100 j"
#48000000
1#
b1110 (
1+
b1110 /
b00001 1
b11110 3
b000011101 5
b111101100 6
1@
1A
1B
1Q
1Y
1]
b11110 e
b00001 h
1i
b111100 j
0l
1o
0p
1q
0r
0t
1v
0w
1x
1z
0!"
0""
0,"
0-"
1/"
02"
13"
14"
16"
17"
19"
1;"
0="
1>"
1A"
0B"
1C"
1F"
1L"
0M"
1N"
1Q"
0R"
1S"
1V"
1\"
0]"
1^"
0c"
1d"
1g"
b000011101 j"
b111101100 k"
b111101100 m"
#48500000
1f"
#50000000
0#
0+
b000000111 5
0:
0=
0>
0@
0A
0B
0H
0J
0K
b11 L
0M
0Q
0S
b11 T
1U
0Y
0]
1_
1`
0d"
0g"
0i"
b000000111 j"
#52000000
1#
b1000 '
b1101 (
1+
b1000 .
b1101 /
b00000 1
b11101 3
b1000 4
b111011000 6
1A
1B
1Q
b11101 e
b00000 h
1i
b111110 j
1l
0o
1p
0q
1r
1t
0v
1w
0x
0z
0|
1!"
0""
1#"
1$"
0%"
1&"
0'"
1)"
0*"
1+"
1,"
0-"
1."
11"
02"
13"
16"
1<"
0="
1>"
1A"
0B"
1C"
1F"
1L"
0M"
1N"
1Q"
0R"
1S"
1V"
1\"
0]"
1^"
0c"
1g"
b111011000 k"
b111011000 m"
#54000000
0#
0+
b000001001 5
1:
1=
1>
0A
0B
1H
1J
1K
1M
0Q
1S
0g"
1i"
b000001001 j"
#56000000
1#
b1001 '
b0000 (
1+
b1001 .
b0000 /
b00011 1
b00000 3
b1001 4
b000111001 5
b000001001 6
1@
1A
1B
1Q
1Y
1Z
1[
U\
1]
1a
b00000 e
b00011 h
0i
b000000 j
0l
1o
0p
1q
0r
0t
1v
0w
1x
1z
0!"
1""
0#"
0&"
0,"
1-"
0."
0/"
01"
02"
03"
04"
06"
07"
09"
0;"
0<"
0="
0>"
0?"
0A"
0B"
0C"
0D"
0F"
0G"
0I"
0K"
0L"
0M"
0N"
0O"
0Q"
0R"
0S"
0T"
0V"
0W"
0Y"
0["
0\"
0]"
0^"
0c"
1d"
1g"
b000111001 j"
b000001001 k"
b000001001 m"
#56500000
0<
0E
0f"
#58000000
0#
0+
b000000111 5
0:
0=
0>
0@
0A
0B
0H
0J
0K
b00 L
0M
1N
0O
0Q
0S
b00 T
0U
0V
0Y
0Z
0[
0\
0]
0_
0`
0a
0c
0d
0d"
0g"
0i"
b000000111 j"
#60000000
1#
b0010 '
b0001 (
1+
b0010 .
b0001 /
b00100 1
b00001 3
b0010 4
b000010010 6
1A
1B
1Q
b00001 e
b00100 h
b000110 j
1l
0o
1p
0q
1r
1t
0v
1w
0x
0z
1!"
0""
1#"
1&"
1,"
0-"
1."
11"
12"
1<"
1="
1g"
b000010010 k"
b000010010 m"
#62000000
0#
0+
b11110 1
b111100010 5
1:
1;
1=
1>
0A
0B
1H
1I
1J
1K
1M
0Q
1S
1g
b11110 h
0i
b000011 j
b11100 k
0m
1n
0o
1p
1q
0r
1s
0u
1v
0w
1x
1y
0z
1{
0}
1!"
1""
0#"
0$"
0&"
0("
0)"
0+"
1,"
1-"
0."
10"
01"
12"
03"
14"
06"
18"
19"
1;"
0<"
1="
0>"
1@"
0A"
1B"
0C"
1D"
0F"
1H"
1I"
1K"
0L"
1M"
0N"
1P"
0Q"
1R"
0S"
1T"
0V"
1X"
1Y"
1["
0\"
1]"
0^"
1c"
0g"
1i"
b111100010 j"
#64000000
1#
b1110 (
1+
b1110 /
b11011 1
b11110 3
b110110010 5
b111100010 6
1@
1A
1B
1Q
1Y
1]
b11110 e
b11011 h
1i
b111001 j
0l
1o
0p
0q
0s
0t
0v
0x
1z
0{
1|
0!"
1""
0#"
1$"
0&"
1'"
1)"
1+"
0,"
1-"
0."
1/"
01"
02"
13"
04"
15"
17"
09"
1:"
0;"
0<"
0="
1?"
1A"
1B"
1C"
0D"
1E"
1G"
0I"
1J"
0K"
1L"
1M"
1O"
1Q"
1R"
1S"
0T"
1U"
1W"
0Y"
1Z"
0["
1\"
1]"
1c"
1d"
1g"
b110110010 j"
b111100010 k"
b111100010 m"
#64500000
1<
1E
1O
1f"
#66000000
0#
0+
b00001 1
b000010010 5
0;
0>
0@
0A
0B
0I
0J
b01 L
0M
0N
0Q
0S
b01 T
1U
0Y
0]
1_
1`
0g
b00001 h
1i
b111100 j
b00011 k
1m
0n
1o
1q
1u
1v
1x
0y
1z
1}
0""
1#"
0$"
1%"
1("
0)"
1*"
0+"
0-"
00"
11"
02"
13"
14"
05"
16"
08"
19"
0:"
1;"
1<"
0="
1>"
0@"
1A"
0B"
1C"
1D"
0E"
1F"
0H"
1I"
0J"
1K"
1L"
0M"
1N"
0P"
1Q"
0R"
1S"
1T"
0U"
1V"
0X"
1Y"
0Z"
1["
1\"
0]"
1^"
0c"
0d"
0g"
b000010010 j"
#68000000
1#
b0001 (
1+
b0001 /
b00100 1
b00001 3
b001000010 5
b000010010 6
1@
1A
1B
1Q
b00001 e
b00100 h
0i
b000110 j
1l
0o
1p
0q
1r
1t
0v
1w
0x
0z
0|
1!"
0""
1#"
1$"
0%"
1&"
0'"
1)"
0*"
1+"
1,"
0-"
1."
0/"
11"
12"
03"
04"
06"
07"
09"
0;"
1<"
1="
0>"
0?"
0A"
0B"
0C"
0D"
0F"
0G"
0I"
0K"
0L"
0M"
0N"
0O"
0Q"
0R"
0S"
0T"
0V"
0W"
0Y"
0["
0\"
0]"
0^"
0c"
1d"
1g"
b001000010 j"
b000010010 k"
b000010010 m"
#68500000
0<
0E
0f"
#70000000
0#
0+
b000000111 5
08
0:
0=
0@
0A
0B
0F
0H
0K
0Q
0d"
0g"
0i"
b000000111 j"
